{
  "name": "October",
  "abbreviation": "Oct",
  "talks": [
    {
      "presenter": {
        "name": "Nicholas Starke"
      },
      "presentation": {
        "title": "Binary Ninja",
        "links": [
          {
            "url": "https://youtu.be/nSM2vTYyACQ",
            "type": "youtube"
        }
        ]
      }
  },
    {
      "presenter": {
        "name": "Gadi Evron"
      },
      "presentation": {
        "title": "Threat Hunting with Cyber Deception Tools",
        "links": [
          {
            "url": "https://youtu.be/TXc03CswYR8",
            "type": "youtube"
        }
        ]
      }
  },
  {
    "presenter": {
      "name": "Gadi Evron"
    },
    "presentation": {
      "title": "The OPSEC evolution of APT threat actors",
      "links": [
        {
          "url": "https://youtu.be/y3bx3nlaY4g",
          "type": "youtube"
      }
      ]
    }
  },
    {
      "presenter": {
        "name": "James Beal"
      },
      "presentation": {
        "title": "Cyber Deception",
        "description": "CYBER! CYBER! CYBER!  Now that everyone is 3 shots deep, I plan to discuss info sec deception tools from Black Hills Info Sec and Cymmetria. These are, at their core, a software suite or tool to make honeypots and honeytokens, along with several other methods, actually functionally usable to setup and run.  I will be doing a basic review of the Active Defense Harbinger Distribution(BHIS) and Mazerunner from Cymmetria. To follow on from Gadi's discussion of using \"cyber deception\" tools for threat hunting, I will also show a demo of Mazerunner.",
        "links": [
          {
            "url": "https://youtu.be/V036kynLF8w",
            "type": "youtube"
          },
          {
            "url":"./2016/10/CyberDeceptionSlideDeck.pdf",
            "type": "file-pdf-o"
          }
        ]
      }
  }
  ]
}
